test_run_dir/ChiModule_should_do_the_Chi_function_in_Sha3/ChiModule.vcd
$version Generated by VerilatedVcd $end
$date Fri 10 Feb 2023 04:16:23 PM EST $end
$timescale 1ps $end

 $scope module TOP $end
  $var wire  1 # clock $end
  $var wire 64 % io_state_i_0 [63:0] $end
  $var wire 64 ' io_state_i_1 [63:0] $end
  $var wire 64 9 io_state_i_10 [63:0] $end
  $var wire 64 ; io_state_i_11 [63:0] $end
  $var wire 64 = io_state_i_12 [63:0] $end
  $var wire 64 ? io_state_i_13 [63:0] $end
  $var wire 64 A io_state_i_14 [63:0] $end
  $var wire 64 C io_state_i_15 [63:0] $end
  $var wire 64 E io_state_i_16 [63:0] $end
  $var wire 64 G io_state_i_17 [63:0] $end
  $var wire 64 I io_state_i_18 [63:0] $end
  $var wire 64 K io_state_i_19 [63:0] $end
  $var wire 64 ) io_state_i_2 [63:0] $end
  $var wire 64 M io_state_i_20 [63:0] $end
  $var wire 64 O io_state_i_21 [63:0] $end
  $var wire 64 Q io_state_i_22 [63:0] $end
  $var wire 64 S io_state_i_23 [63:0] $end
  $var wire 64 U io_state_i_24 [63:0] $end
  $var wire 64 + io_state_i_3 [63:0] $end
  $var wire 64 - io_state_i_4 [63:0] $end
  $var wire 64 / io_state_i_5 [63:0] $end
  $var wire 64 1 io_state_i_6 [63:0] $end
  $var wire 64 3 io_state_i_7 [63:0] $end
  $var wire 64 5 io_state_i_8 [63:0] $end
  $var wire 64 7 io_state_i_9 [63:0] $end
  $var wire 64 W io_state_o_0 [63:0] $end
  $var wire 64 Y io_state_o_1 [63:0] $end
  $var wire 64 k io_state_o_10 [63:0] $end
  $var wire 64 m io_state_o_11 [63:0] $end
  $var wire 64 o io_state_o_12 [63:0] $end
  $var wire 64 q io_state_o_13 [63:0] $end
  $var wire 64 s io_state_o_14 [63:0] $end
  $var wire 64 u io_state_o_15 [63:0] $end
  $var wire 64 w io_state_o_16 [63:0] $end
  $var wire 64 y io_state_o_17 [63:0] $end
  $var wire 64 { io_state_o_18 [63:0] $end
  $var wire 64 } io_state_o_19 [63:0] $end
  $var wire 64 [ io_state_o_2 [63:0] $end
  $var wire 64 !! io_state_o_20 [63:0] $end
  $var wire 64 #! io_state_o_21 [63:0] $end
  $var wire 64 %! io_state_o_22 [63:0] $end
  $var wire 64 '! io_state_o_23 [63:0] $end
  $var wire 64 )! io_state_o_24 [63:0] $end
  $var wire 64 ] io_state_o_3 [63:0] $end
  $var wire 64 _ io_state_o_4 [63:0] $end
  $var wire 64 a io_state_o_5 [63:0] $end
  $var wire 64 c io_state_o_6 [63:0] $end
  $var wire 64 e io_state_o_7 [63:0] $end
  $var wire 64 g io_state_o_8 [63:0] $end
  $var wire 64 i io_state_o_9 [63:0] $end
  $var wire  1 $ reset $end
  $scope module ChiModule $end
   $var wire  1 # clock $end
   $var wire 64 % io_state_i_0 [63:0] $end
   $var wire 64 ' io_state_i_1 [63:0] $end
   $var wire 64 9 io_state_i_10 [63:0] $end
   $var wire 64 ; io_state_i_11 [63:0] $end
   $var wire 64 = io_state_i_12 [63:0] $end
   $var wire 64 ? io_state_i_13 [63:0] $end
   $var wire 64 A io_state_i_14 [63:0] $end
   $var wire 64 C io_state_i_15 [63:0] $end
   $var wire 64 E io_state_i_16 [63:0] $end
   $var wire 64 G io_state_i_17 [63:0] $end
   $var wire 64 I io_state_i_18 [63:0] $end
   $var wire 64 K io_state_i_19 [63:0] $end
   $var wire 64 ) io_state_i_2 [63:0] $end
   $var wire 64 M io_state_i_20 [63:0] $end
   $var wire 64 O io_state_i_21 [63:0] $end
   $var wire 64 Q io_state_i_22 [63:0] $end
   $var wire 64 S io_state_i_23 [63:0] $end
   $var wire 64 U io_state_i_24 [63:0] $end
   $var wire 64 + io_state_i_3 [63:0] $end
   $var wire 64 - io_state_i_4 [63:0] $end
   $var wire 64 / io_state_i_5 [63:0] $end
   $var wire 64 1 io_state_i_6 [63:0] $end
   $var wire 64 3 io_state_i_7 [63:0] $end
   $var wire 64 5 io_state_i_8 [63:0] $end
   $var wire 64 7 io_state_i_9 [63:0] $end
   $var wire 64 W io_state_o_0 [63:0] $end
   $var wire 64 Y io_state_o_1 [63:0] $end
   $var wire 64 k io_state_o_10 [63:0] $end
   $var wire 64 m io_state_o_11 [63:0] $end
   $var wire 64 o io_state_o_12 [63:0] $end
   $var wire 64 q io_state_o_13 [63:0] $end
   $var wire 64 s io_state_o_14 [63:0] $end
   $var wire 64 u io_state_o_15 [63:0] $end
   $var wire 64 w io_state_o_16 [63:0] $end
   $var wire 64 y io_state_o_17 [63:0] $end
   $var wire 64 { io_state_o_18 [63:0] $end
   $var wire 64 } io_state_o_19 [63:0] $end
   $var wire 64 [ io_state_o_2 [63:0] $end
   $var wire 64 !! io_state_o_20 [63:0] $end
   $var wire 64 #! io_state_o_21 [63:0] $end
   $var wire 64 %! io_state_o_22 [63:0] $end
   $var wire 64 '! io_state_o_23 [63:0] $end
   $var wire 64 )! io_state_o_24 [63:0] $end
   $var wire 64 ] io_state_o_3 [63:0] $end
   $var wire 64 _ io_state_o_4 [63:0] $end
   $var wire 64 a io_state_o_5 [63:0] $end
   $var wire 64 c io_state_o_6 [63:0] $end
   $var wire 64 e io_state_o_7 [63:0] $end
   $var wire 64 g io_state_o_8 [63:0] $end
   $var wire 64 i io_state_o_9 [63:0] $end
   $var wire  1 $ reset $end
  $upscope $end
 $upscope $end
$enddefinitions $end


#0
0#
1$
b0000000000000000000000000000000000000000000000000000000000000000 %
b0000000000000000000000000000000000000000000000000000000000000000 '
b0000000000000000000000000000000000000000000000000000000000000000 )
b0000000000000000000000000000000000000000000000000000000000000000 +
b0000000000000000000000000000000000000000000000000000000000000000 -
b0000000000000000000000000000000000000000000000000000000000000000 /
b0000000000000000000000000000000000000000000000000000000000000000 1
b0000000000000000000000000000000000000000000000000000000000000000 3
b0000000000000000000000000000000000000000000000000000000000000000 5
b0000000000000000000000000000000000000000000000000000000000000000 7
b0000000000000000000000000000000000000000000000000000000000000000 9
b0000000000000000000000000000000000000000000000000000000000000000 ;
b0000000000000000000000000000000000000000000000000000000000000000 =
b0000000000000000000000000000000000000000000000000000000000000000 ?
b0000000000000000000000000000000000000000000000000000000000000000 A
b0000000000000000000000000000000000000000000000000000000000000000 C
b0000000000000000000000000000000000000000000000000000000000000000 E
b0000000000000000000000000000000000000000000000000000000000000000 G
b0000000000000000000000000000000000000000000000000000000000000000 I
b0000000000000000000000000000000000000000000000000000000000000000 K
b0000000000000000000000000000000000000000000000000000000000000000 M
b0000000000000000000000000000000000000000000000000000000000000000 O
b0000000000000000000000000000000000000000000000000000000000000000 Q
b0000000000000000000000000000000000000000000000000000000000000000 S
b0000000000000000000000000000000000000000000000000000000000000000 U
b0000000000000000000000000000000000000000000000000000000000000000 W
b0000000000000000000000000000000000000000000000000000000000000000 Y
b0000000000000000000000000000000000000000000000000000000000000000 [
b0000000000000000000000000000000000000000000000000000000000000000 ]
b0000000000000000000000000000000000000000000000000000000000000000 _
b0000000000000000000000000000000000000000000000000000000000000000 a
b0000000000000000000000000000000000000000000000000000000000000000 c
b0000000000000000000000000000000000000000000000000000000000000000 e
b0000000000000000000000000000000000000000000000000000000000000000 g
b0000000000000000000000000000000000000000000000000000000000000000 i
b0000000000000000000000000000000000000000000000000000000000000000 k
b0000000000000000000000000000000000000000000000000000000000000000 m
b0000000000000000000000000000000000000000000000000000000000000000 o
b0000000000000000000000000000000000000000000000000000000000000000 q
b0000000000000000000000000000000000000000000000000000000000000000 s
b0000000000000000000000000000000000000000000000000000000000000000 u
b0000000000000000000000000000000000000000000000000000000000000000 w
b0000000000000000000000000000000000000000000000000000000000000000 y
b0000000000000000000000000000000000000000000000000000000000000000 {
b0000000000000000000000000000000000000000000000000000000000000000 }
b0000000000000000000000000000000000000000000000000000000000000000 !!
b0000000000000000000000000000000000000000000000000000000000000000 #!
b0000000000000000000000000000000000000000000000000000000000000000 %!
b0000000000000000000000000000000000000000000000000000000000000000 '!
b0000000000000000000000000000000000000000000000000000000000000000 )!
#1
1#
#2
0#
0$
b0000000000000000000000000000000001011111001100110100010011001111 %
b0011010110101000111100000000000000000000000000000000110101010111 '
b0010111010010101101000000000000000000000000000000000010011111010 )
b0000000000011001011010111001001100000011011000000000000000000000 +
b0000000000000000000101001110110001110110010000100100000000000000 -
b0000101000011110011101000101100000000000000000000000000000000000 /
b0000000000000010011100000111110000110001101000000000000000000000 1
b0000000000000000000000000000001010001110001011100000001110000000 3
b1111101010001110011000000000000000000000000000000001011110000100 5
b0110000000000000000000000000000000011100001010100110000001010101 7
b0000000000000000000000000000000111101001010111001001011000111000 9
b0000000000000000000000000011111000110011001011101101101111000000 ;
b0000000100100110101101101110001110000000000000000000000000000000 =
b0000000000000000000000000011110110001101101111100110110100000000 ?
b0000000000000000001101100111110001000010100101000000000000000000 A
b0000001110011111101111001000010000100000000000000000000000000000 C
b1110010110111000000101001101000000000000000000000000000000000110 E
b0000000000000000000000100110110100011110001011100100110000000000 G
b0000000000000000011010111010011001110100000101110000000000000000 I
b1011101100000000000000000000000000000000111001011001011001011111 K
b1000000000000000000000000000000000100011100110101100101100100101 M
b0101011010000000000000000000000000000000011110010100110000100110 O
b1011011000000111111100001000000000000000000000000000000000111011 Q
b0100100000000001001100100000000000000000000000000000000000101011 S
b0000000000000000000000000000001100101001010111100110111011110100 U
b0000101000010101000000000000000001011111001100110100010001100111 W
b0011010110100000101110111001001100000011011000000000110101010111 Y
b0010111010010101101101000110110001110100000000100100010011111010 [
b0000000000011001011010111001001100001010010100010000010011001111 ]
b0011010110101000111001001110110001110110010000100100100100010000 _
b0000101000011110011101000101101010001110000011100000001110000000 a
b1111101010001100000100000111110000110001101000000001010000000100 c
b0000000000000000000000000000001010010010000001000110001111010001 e
b1111000010010000000101000101100000000000000000000001011110000100 g
b0110000000000000000000000010010000101101100010100110000001010101 i
b0000000100100110101101101100000001101001010111001001011000111000 k
b0000000000000000000000000010001000111110100100001011011011000000 m
b0000000100100110100000001010001111000010000000000000000000000000 o
b0000000000000000000000000011110000100100111101101111101100111000 q
b0000000000000000001101100100001001010000101101100100100111000000 s
b0000001110011111101111101010100100111110001011100100110000000000 u
b1110010110111000011111010101001001100000000100010000000000000110 w
b1011101100000000000000100110110100011110110011101101101001011111 y
b0000000010011111110101110010001001010100000101110000000000000000 {
b0101111100100000000000000101000000000000111001011001011001011001 }
b0010000000000111111100001000000000100011100110101100101100111100 !!
b0001111010000000000000100000000000000000011110010100110000100110 #!
b1011011000000111111100001000001100101001010111100110111011101111 %!
b1100100000000001001100100000000000000010100000001000000100101010 '!
b0101011010000000000000000000001100101001001111110110101011110110 )!
#3
1#
#4
0#
b0000000000000000000000000000000000110110001011001111111101101100 %
b0010111011011110100100000000000000000000000000000000011101000001 '
b1100110111001110101000000000000000000000000000000000001001010100 )
b0000000000000001111110010100011100110101100000000000000000000000 +
b0000000000000000000101010000010110101010011111010100000000000000 -
b0000011111101010101011011011011000100000000000000000000000000000 /
b0000000000000100001011011111010101001010111000000000000000000000 1
b0000000000000000000000000000001011111000001010101011011001011000 3
b1010001010111100111000000000000000000000000000000000011001001101 5
b1010000000000000000000000000000000000111010010101101100101001101 7
b0000000000000000000000000000000000111100111011101001111000101010 9
b0000000000000000000000000000000010001000111000001111010010000000 ;
b0000000010111111001001000011010101010100000000000000000000000000 =
b0000000000000000000000000001000100011100111011010001000100000000 ?
b0000000000000000101101111110111001010110011001000000000000000000 A
b0000000101000000110101001101010100000000000000000000000000000000 C
b0000101000100000111110010010000000000000000000000000000000000101 E
b0000000000000000000000001000010100001111111111001011000000000000 G
b0000000000000000001010101100011111011001101010101000000000000000 I
b1001110100000000000000000000000000000000011001111000111111000000 K
b1000000000000000000000000000000000001001110000000001100010010110 M
b0100101010000000000000000000000000000000000011010010101111010011 O
b0111110111101100101001110000000000000000000000000000000000001001 Q
b0111110011110100111000000000000000000000000000000000000001011011 S
b0000000000000000000000000000000111010010011100010001110111110100 U
b1100000100000000001000000000000000110110001011001111111101111000 W
b0010111011011111110010010100011100110101100000000000011101000001 Y
b1100110111001110101001000000000010001010011111010100001001010100 [
b0000000000000001111110010100011100100001100000001011111101101100 ]
b0010111011011110100001010000010110101010011111010100000000000001 _
b0000011111101010101011011011010010010000000010101011011001011000 a
b1010001010111000110011011111010101001010111000000000000000000101 c
b0000000000000000000000000000001011111111011000000110111101011000 e
b1010010101010110010011011011011000100000000000000000011001001101 g
b1010000000000100000000000100000101001101101010101101100101001101 i
b0000000010111111001001000011010101101000111011101001111000101010 k
b0000000000000000000000000000000010000000000011011110010110000000 m
b0000000010111111100100111101101100010110000000000000000000000000 o
b0000000000000000000000000001000100110100011001111000111100101010 q
b0000000000000000101101111110111011010110011001000110000010000000 s
b0000000101000000110101000101000000001111111111001011000000000000 u
b0000101000100000110100110110001011010000000000100000000000000101 w
b1001110100000000000000001000010100001111101110011011111111000000 y
b0000000001000000111111100001001011011001101010101000000000000000 {
b1001011100100000001010010010000000000000011001111000111111000101 }
b1011010101101100101001110000000000001001110000000001100010011110 !!
b0100101010010000010000000000000000000000000011010010101110000001 #!
b0111110111101100101001110000000111010010011100010001110110101101 %!
b1111110011110100111000000000000000001001100000000000000001011001 '!
b0100101010000000000000000000000111010010011111000011111010110101 )!
#5
1#
#6
0#
b0000000000000000000000000000000000111101111010010101110001101000 %
b0000111011011100100100000000000000000000000000000000010000000101 '
b0000010001011110101100000000000000000000000000000000000010001011 )
b0000000000000111111110101011001010101011001000000000000000000000 +
b0000000000000000000101101110001001111110000111001000000000000000 -
b0000011111110101011001100011111000100000000000000000000000000000 /
b0000000000000010110101111011011011011000100100000000000000000000 1
b0000000000000000000000000000000101101011111101011101010001111000 3
b1101100101000000010000000000000000000000000000000000000111011001 5
b1110000000000000000000000000000000001000001010110111110011100010 7
b0000000000000000000000000000000000000000000111111100100100101010 9
b0000000000000000000000000000001011111011110100110001011001000000 ;
b0000000010100111010000001101100000011100000000000000000000000000 =
b0000000000000000000000000111001100111100010001110001111000000000 ?
b0000000000000001101011011000000111001001110111000000000000000000 A
b0000001010101001110010111101010011011000000000000000000000000000 C
b1101001101101101110001100000000000000000000000000000000000000111 E
b0000000000000000000000010000000000001000001111010101110000000000 G
b0000000000000000000111001101111111001101101001001000000000000000 I
b1100100100000000000000000000000000000000010011000111101010010101 K
b0000000000000000000000000000000000010000010111011110000001011000 M
b0111110010000000000000000000000000000000000010011111011100011011 O
b1101001010101010110100110000000000000000000000000000000000110000 Q
b0111110000110010001101100000000000000000000000000000000001111101 S
b0000000000000000000000000000000010110001111000101101100101011000 U
b0000000000000010001000000000000000111101111010010101110011100010 W
b0000111011011101110110101011001010101011001000000000010000000101 Y
b0000010001011110101101000100000001010100000111001000000010001011 [
b0000000000000111111110101011001010101010110000010101110001101000 ]
b0000111011011100100001101110001001111110000111001000000000000101 _
b0000011111110101011001100011111100000011011001011101010001111000 a
b1101100101000010100101111011011011011000100100000000000110000001 c
b0010000000000000000000000000000101100011110111101010100001011010 e
b1101111010110101001001100011111000100000000000000000000111011001 g
b1110000000000010100100011000000011010000101110110111110011100010 i
b0000000010100111010000001101100000000100000111111100100100101010 k
b0000000000000000000000000010000111011011100101000000100001000000 m
b0000000010100110111011010101100011011101100110000000000000000000 o
b0000000000000000000000000111001100111100010001001101011100101010 q
b0000000000000001101011011000001100110010000111000001011001000000 s
b0000001010101001110010101101010011010000001111010101110000000000 u
b1101001101101101110110101101111111000101100000001000000000000111 w
b1100100100000000000000010000000000001000011101010010011010010101 y
b0000001010101001110101110000101100010101101001001000000000000000 {
b0001100001000100000001000000000000000000010011000111101010010010 }
b1000001000101010110100110000000000010000010111011110000001111000 !!
b0101000010010000001001000000000000000000000010011111011101010110 #!
b1101001010101010110100110000000010110001111000101101100100110000 %!
b0111110000110010001101100000000000000000000111010010000001111101 '!
b0111110010000000000000000000000010110001111000101100111001011011 )!
#7
1#
#8
0#
b0000000000000000000000000000000011101001011110000110000111000001 %
b1100100001110000100000000000000000000000000000000000011100101000 '
b0001001001001000011000000000000000000000000000000000010001101001 )
b0000000000001000100111110001110011000110110000000000000000000000 +
b0000000000000000000110100001001110111110111101011100000000000000 -
b0000001111001000101100110100101010100000000000000000000000000000 /
b0000000000000110010101100000011010111110001100000000000000000000 1
b0000000000000000000000000000010011101010000010101110110011101000 3
b1100010101011010000000000000000000000000000000000000111110010011 5
b0100000000000000000000000000000000011100111101100001111111001011 7
b0000000000000000000000000000000011100010011010010011011100011110 9
b0000000000000000000000000010010101101001000011111010010000000000 ;
b0000000001011100000011110111000010100110000000000000000000000000 =
b0000000000000000000000000100100110010110010100010110001000000000 ?
b0000000000000010011001011110111110010000010100000000000000000000 A
b0000001001101011110110000001100011011000000000000000000000000000 C
b0100011111101000000010111111000000000000000000000000000000001001 E
b0000000000000000000000000111101101101110001111111101010000000000 G
b0000000000000000011001111100010000000110001111111000000000000000 I
b1011000100000000000000000000000000000000011010101000001001100101 K
b0000000000000000000000000000000000101001100011001111001101110010 M
b1001000110000000000000000000000000000000000011010111101110000000 O
b0110010000010001001001101000000000000000000000000000000000001110 Q
b0001100001000101110101000000000000000000000000000000000111001000 S
b0000000000000000000000000000000111111100000100000001111100111100 U
b0001001000001000011000000000000011101001011110000110000110000000 W
b1100100001110000000111110001110011000110110000000000011100101000 Y
b0001001001001000011000000000001100111000001101011100010001101001 [
b0000000000001000100111110001110010000111110010000010000111000001 ]
b1100100001110000100110100001001110111110111101011100011000101000 _
b0000001111001000101100110100101011100000000010101110110011101000 a
b1100010101011100010101100000011010111110001100000000001100010011 c
b0000000000000000000000000000010011110110111111001111110010100000 e
b1100011010010010101100110100101010100000000000000000111110010011 g
b0100000000000110010001000000010000000010110001100001111111001011 i
b0000000001011100000011110101000001100100011010010011011100011110 k
b0000000000000000000000000010110001111001010111101100011000000000 m
b0000000001011110011010101101011010100110000000000000000000000000 o
b0000000000000000000000000100100111110100011110000101010100011110 q
b0000000000000010011001011100101010011001010101101000000000000000 s
b0000001001101011110110000001001110110110001111111101010000000000 u
b0100011111101000011011000111010000000000000000000000000000001001 w
b1011000100000000000000000111101101101110011111111101011001100101 y
b0000001001101011101111111101110011011110001111111000000000000000 {
b1111010010000000000000111110000000000000011010101000001001101100 }
b0110010000010001001001101000000000101001100011001111001101111100 !!
b1000100111000100110100000000000000000000000011010111101001000000 #!
b0110010000010001001001101000000111111100000100000001111000111010 %!
b0001100001000101110101000000000000000001100011001110000110001010 '!
b1001000110000000000000000000000111111100000100010001011110111100 )!
#9
1#
#10
0#
b0000000000000000000000000000000010000111110100001011001101110100 %
b0010110111011010110000000000000000000000000000000000101011001001 '
b1000111001101101100000000000000000000000000000000000001111001100 )
b0000000000000110010110111011110010011100110000000000000000000000 +
b0000000000000000000001101100100111010110011111000100000000000000 -
b0000001000101101101011101011001001010000000000000000000000000000 /
b0000000000000000100000001000100010011001000100000000000000000000 1
b0000000000000000000000000000010000100000011111101010001000100000 3
b1101001000010110001000000000000000000000000000000001100000100110 5
b1010000000000000000000000000000000000000011101110111100000101011 7
b0000000000000000000000000000000111010000100010011101110010100000 9
b0000000000000000000000000000001111100010011000000111111100000000 ;
b0000000001101111000011100001001111001100000000000000000000000000 =
b0000000000000000000000000110111110011100110011011110000100000000 ?
b0000000000000011000000001101011010100010000111000000000000000000 A
b0000000010101110000000111000000110001000000000000000000000000000 C
b1110100010011000101000100001000000000000000000000000000000001001 E
b0000000000000000000000100110111100000110000110111111110000000000 G
b0000000000000000000101001010010111011110100011000000000000000000 I
b1001011000000000000000000000000000000000010100100000000011110001 K
b1100000000000000000000000000000000001011110101101011000011110000 M
b1000011010000000000000000000000000000000001001010100100110000110 O
b1010011011000000011111011000000000000000000000000000000000100100 Q
b0100111100101010000010100000000000000000000000000000000101111110 S
b0000000000000000000000000000001100111111111001100100011111010000 U
b1000001000100101000000000000000010000111110100001011001001110000 W
b0010110111011000100110111011110010011100110000000000101011001001 Y
b1000111001101101100001000100000101000010001111000100001111001100 [
b0000000000000110010110111011110010011101010000001011001101110100 ]
b0010110111011010110001101100100111010110011111000100100010001001 _
b0000001000101101101011101011011001110000011011101010001000100000 a
b1101001000010110101000001000100010011001000100000001100000000110 c
b0010000000000000000000000000010000100000000010011100001000101001 e
b1101000000111011100011101011001001010000000000000001100000100110 g
b1010000000000000000000000000100010001001011001110111100000101011 i
b0000000001101111000011100001000111011100100010011101110010100000 k
b0000000000000000000000000110111111110010101011011001111000000000 m
b0000000001101100000011101000001111101110000100000000000000000000 o
b0000000000000000000000000110111011001100010011000011110110100000 q
b0000000000000011000000001101010010000000011111000010001100000000 s
b0000000010101110000000111110111010001110000110111111110000000000 u
b1110100010011000101101101001000011011000100001000000000000001001 w
b1001011000000000000000100110111100000110010010011111110011110001 y
b0000000010101110000101110010010001010110100011000000000000000000 {
b0111111000010000101000000001000000000000010100100000000011111000 }
b1110000001000000011111011000000000001011110101101011000011010000 !!
b1100111110101010000000100000000000000000001001010100100011011100 #!
b1010011011000000011111011000001100111111111001100100011010100100 %!
b1000111100101010000010100000000000000000000100001011000101011110 '!
b0000011010000000000000000000001100111111110001110000111011010110 )!
#11
1#
#12
0#
b0000000000000000000000000000000010100011011010100010111101001111 %
b1001010111000000100000000000000000000000000000000000111010010010 '
b1000100101110110011110000000000000000000000000000000010100100000 )
b0000000000011100100001010011111010000011110000000000000000000000 +
b0000000000000000000000111101000111010101001101010100000000000000 -
b0000110110001100010101011111001100000000000000000000000000000000 /
b0000000000000110001000000110011100010111111100000000000000000000 1
b0000000000000000000000000000011001110001000011101001011111111000 3
b0110011001010010110000000000000000000000000000000001000001001100 5
b0110000000000000000000000000000000010011101001001100010010011111 7
b0000000000000000000000000000000110001001010001011001111010010100 9
b0000000000000000000000000011010010011110011101111101111101000000 ;
b0000000101100101001011011100000010110010000000000000000000000000 =
b0000000000000000000000000010111101001011001111100100101000000000 ?
b0000000000000011110101011101000111011111010101000000000000000000 A
b0000000010111001100100100010111101001000000000000000000000000000 C
b0111011100110111100010010011000000000000000000000000000000001010 E
b0000000000000000000000111010101011011011111110001111000000000000 G
b0000000000000000010010000000100110000101010011110000000000000000 I
b0111000000000000000000000000000000000000101100010100001111111001 K
b1100000000000000000000000000000000100000000100000101011111000100 M
b0101010100000000000000000000000000000000010101000000001010111010 O
b0100111010101010010100011000000000000000000000000000000000001001 Q
b1011110101101111000110000000000000000000000000000000000101101110 S
b0000000000000000000000000000001000110000001111111111100111101100 U
b0000100000110110011110000000000010100011011010100010111001101111 W
b1001010111001000000001010011111010000011110000000000111010010010 Y
b1000100101110110011110101100000101010100001101010100010100100000 [
b0000000000011100100001010011111010100001100010100010111101001111 ]
b1001010111000000100000111101000111010101001101010100000010010000 _
b0000110110001100010101011111001101100000000011101001011111111000 a
b0110011001010100111000000110011100010111111100000000000000000100 c
b0000000000000000000000000000011001100010101010100101001101101011 e
b0110101111011110100101011111001100000000000000000001000001001100 g
b0110000000000010001000000000010000000100010101001100010010011111 i
b0000000101100101001011011100000110101001010001011001111010010100 k
b0000000000000000000000000001101111010111010010011001010101000000 m
b0000000101100110111110000001000000100110010000000000000000000000 o
b0000000000000000000000000010111101001011001111111101010010010100 q
b0000000000000011110101011110010111001001011001100100000101000000 s
b0000000010111001100100001010010110010011111110001111000000000000 u
b0111011100110111110000010011000100000100000001110000000000001010 w
b0111000000000000000000111010101011011011010010001011001111111001 y
b0000000010111001110110100010011011001101010011110000000000000000 {
b0000011100000110000010010001000000000000101100010100001111110011 }
b1100101010101010010100011000000000100000000100000101011111000101 !!
b1110010001000101000010000000000000000000010101000000001111011100 #!
b0100111010101010010100011000001000110000001111111111100010001001 %!
b0111110101101111000110000000000000000000000000000000011101101110 '!
b0001010100000000000000000000001000110000011110111111100111010110 )!
#13
1#
#14
0#
b0000000000000000000000000000000011001000101010001000111111001010 %
b1011110011111001100000000000000000000000000000000000111010101101 '
b1001000010100001000100000000000000000000000000000000010110111001 )
b0000000000010011011101101111001001011101001000000000000000000000 +
b0000000000000000001101001100100100100000000101010000000000000000 -
b0000101000100100010011011110100110110000000000000000000000000000 /
b0000000000001100010110011010000011111111110000000000000000000000 1
b0000000000000000000000000000011110010101101110010110111001111000 3
b0001011100101010011000000000000000000000000000000001000010101101 5
b1000000000000000000000000000000000010000101001111011101100010000 7
b0000000000000000000000000000000110001001001111010011001010000100 9
b0000000000000000000000000011000110010101101110110010101100000000 ;
b0000000110001000011010001011111011101100000000000000000000000000 =
b0000000000000000000000001110101011110101110100000101011000000000 ?
b0000000000000010111011011110011111110101001011000000000000000000 A
b0000011000000101001000011110010101111000000000000000000000000000 C
b0101000011100001111000101000000000000000000000000000000000001001 E
b0000000000000000000000101000111000101001100101010101110000000000 G
b0000000000000000010110010001010001100111011101100000000000000000 I
b0011101100000000000000000000000000000000110010011111111000010110 K
b0000000000000000000000000000000000111011001011010111110000001010 M
b1011000000000000000000000000000000000000010000001010101101100011 O
b0101010011101101011000110000000000000000000000000000000001011011 Q
b0111010011111101101100000000000000000000000000000000000100000110 S
b0000000000000000000000000000001110011101000100110000100100110000 U
b0000000000000000000100000000000011001000101010001000111011011010 W
b1011110011101011111001101111001001011101001000000000111010101101 Y
b1001000010100001000100000000100100100000000101010000010110111001 [
b0000000000010011011101101111001010010101100010001000111111001010 ]
b1011110011111001101101001100100100100000000101010000000000100101 _
b0000101000100100010011011110111010110000001110010110111001111000 a
b0001011100100110001110011010000011111111110000000001000010000101 c
b1000000000000000000000000000011110000101000111101100010101101000 e
b0001110100001110001011011110100110100000000000000001000010101101 g
b1000000000001000000100000000000001011111011001111011101100010000 i
b0000000110001000011010001000111111100001001111010011001010000100 k
b0000000000000000000000000111000110000100011010110111110100000000 m
b0000000110001010100001011011101111101100001011000000000000000000 o
b0000000000000000000000001110101011111101110000010110010010000100 q
b0000000000000010111011011101011111100001101011100000100100000000 s
b0000011000000101001000011110101101010001100101010101110000000000 u
b0101000011100001101110111001000001000110011000100000000000001001 w
b0011101100000000000000101000111000101001000111001010001000010110 y
b0000010000000101011110001111000100011111011101100000000000000000 {
b0110101111100000110000100000000000000000110010011111111000011111 }
b0100010011101101011000110000000000111011001011010111110000010010 !!
b1001000000010000100100000000000000000000010000001010101001100111 #!
b0101010011101101011000110000001110011101000100110000100001101011 %!
b0111010011111101101100000000000000100010001011000111010100001100 '!
b1011000000000000000000000000001110011101010100111000101001010001 )!
#15
1#
#16
0#
b0000000000000000000000000000000001011100010001001010101100101111 %
b0001111101100011101000000000000000000000000000000000111110000001 '
b0000100000011010100100000000000000000000000000000000001100000110 )
b0000000000011100101000011010001000111110100000000000000000000000 +
b0000000000000000001001111110111111100110000110001100000000000000 -
b0000111000110011001010011101011011100000000000000000000000000000 /
b0000000000001111001101110000011100100101101100000000000000000000 1
b0000000000000000000000000000000111011011001101000010100101100000 3
b1111000001010001010000000000000000000000000000000001100000010110 5
b1100000000000000000000000000000000001010011000100000100010001001 7
b0000000000000000000000000000000100010000011101110110000001010010 9
b0000000000000000000000000000110111000000011110110110010011000000 ;
b0000000100101001011101010010001101010110000000000000000000000000 =
b0000000000000000000000001001100001001100101101001001100100000000 ?
b0000000000000001010000011101101010000010000010000000000000000000 A
b0000010010101110100011110101000000011000000000000000000000000000 C
b0011110101100000111001000000000000000000000000000000000000000110 E
b0000000000000000000000100101111111010010100100001101110000000000 G
b0000000000000000000000010111100110000101010011011000000000000000 I
b1011001000000000000000000000000000000000110101000011011110111011 K
b0000000000000000000000000000000000011100010101001101100000001101 M
b1010110010000000000000000000000000000000010001010011100010101111 O
b0010110100100100010011111000000000000000000000000000000001001010 Q
b0101011000100110010101100000000000000000000000000000000000010110 S
b0000000000000000000000000000001010100000110001110111010000111100 U
b0000000000011000000100000000000001011100010001001010101100101001 W
b0001111101100111100000011010001000111110100000000000111110000001 Y
b0000100000011010100101100100110111000000000110001100001100000110 [
b0000000000011100101000011010001000100110110001000010101100101111 ]
b0001111101100011100001111110111111100110000110001100010010000000 _
b0000111000110011001010011101011000111010000001000010100101100000 a
b1111000001011110011101110000011100100101101100000001000000010110 c
b0000000000000000000000000000000111010001010101100010100111101001 e
b1111111001100010011010011101011011100000000000000001100000010110 g
b1100000000001100000101100000000100001111110100100000100010001001 i
b0000000100101001011101010010001100000110011101110110000001010010 k
b0000000000000000000000001001010111001000110011111111110111000000 m
b0000000100101000001101000110000111010100000010000000000000000000 o
b0000000000000000000000001001100101011100110000111111100101010010 q
b0000000000000001010000011101011001000010000000000000010010000000 s
b0000010010101110100011010000111111001010100100001101110000000000 u
b0011110101100000111001010010000000000101010011010000000000000110 w
b1011001000000000000000100101111111010010000000001110101110111011 y
b0000010010101110100011100010100110011101010011011000000000000000 {
b1000101101000000011000000000000000000000110101000011011110111101 }
b0000000100100100010011111000000000011100010101001101100001001101 !!
b1111111010000010000100000000000000000000010001010011100010111011 #!
b0010110100100100010011111000001010100000110001110111010001100010 %!
b0101011000100110010101100000000000011100000100001000100000010111 '!
b1010110010000000000000000000001010100000110001100101010010011110 )!
#17
1#
